<?xml version="1.0" encoding="UTF-8"?>
<svg width="550px" height="253px" viewBox="0 0 550 253" version="1.1" xmlns="http://www.w3.org/2000/svg" xmlns:xlink="http://www.w3.org/1999/xlink">
    <!-- Generator: Sketch 55.2 (78181) - https://sketchapp.com -->
    <title>development-planet copy</title>
    <desc>Created with Sketch.</desc>
    <defs>
        <path d="M0.219535055,98.3284428 C0.219535055,152.528159 44.1578044,196.464974 98.3560664,196.464974 L98.3560664,196.464974 C152.555782,196.464974 196.492598,152.528159 196.492598,98.3284428 L196.492598,98.3284428 C196.492598,44.1287269 152.555782,0.191911439 98.3560664,0.191911439 L98.3560664,0.191911439 C44.1578044,0.191911439 0.219535055,44.1287269 0.219535055,98.3284428" id="path-1"></path>
        <linearGradient x1="31.3231186%" y1="4.03736537%" x2="68.7871474%" y2="96.23241%" id="linearGradient-3">
            <stop stop-color="#FFF700" offset="0%"></stop>
            <stop stop-color="#FFB100" offset="100%"></stop>
        </linearGradient>
        <path d="M0.219535055,98.3284428 C0.219535055,152.528159 44.1578044,196.464974 98.3560664,196.464974 L98.3560664,196.464974 C152.555782,196.464974 196.492598,152.528159 196.492598,98.3284428 L196.492598,98.3284428 C196.492598,44.1287269 152.555782,0.191911439 98.3560664,0.191911439 L98.3560664,0.191911439 C44.1578044,0.191911439 0.219535055,44.1287269 0.219535055,98.3284428" id="path-4"></path>
        <filter x="-31.8%" y="-31.8%" width="163.7%" height="163.7%" filterUnits="objectBoundingBox" id="filter-5">
            <feMorphology radius="1" operator="erode" in="SourceAlpha" result="shadowSpreadInner1"></feMorphology>
            <feGaussianBlur stdDeviation="43.5" in="shadowSpreadInner1" result="shadowBlurInner1"></feGaussianBlur>
            <feOffset dx="37" dy="-29" in="shadowBlurInner1" result="shadowOffsetInner1"></feOffset>
            <feComposite in="shadowOffsetInner1" in2="SourceAlpha" operator="arithmetic" k2="-1" k3="1" result="shadowInnerInner1"></feComposite>
            <feColorMatrix values="0 0 0 0 1   0 0 0 0 0   0 0 0 0 0  0 0 0 0.5 0" type="matrix" in="shadowInnerInner1"></feColorMatrix>
        </filter>
    </defs>
    <g id="Page-1" stroke="none" stroke-width="1" fill="none" fill-rule="evenodd">
        <g id="twitter-card" transform="translate(-128.000000, -11.000000)">
            <g id="development-planet-copy" transform="translate(129.000000, 12.000000)">
                <g id="Group-3" transform="translate(176.000000, 27.000000)">
                    <mask id="mask-2" fill="white">
                        <use xlink:href="#path-1"></use>
                    </mask>
                    <g id="Clip-2"></g>
                    <g id="Fill-1" mask="url(#mask-2)">
                        <use fill="url(#linearGradient-3)" fill-rule="evenodd" xlink:href="#path-4"></use>
                        <use fill="black" fill-opacity="1" filter="url(#filter-5)" xlink:href="#path-4"></use>
                    </g>
                </g>
                <g id="Group-128" stroke-linecap="round" stroke-linejoin="round">
                    <path d="M370.157066,86.0308303 C382.679665,85.2081887 393.950732,84.9013303 403.63158,85.1189604" id="Stroke-4" stroke-opacity="0.8" stroke="#FFFFFF" stroke-width="3.62250017"></path>
                    <path d="M117.84224,144.606758 C128.680139,137.857325 147.043953,130.362146 170.560712,122.975782" id="Stroke-6" stroke-opacity="0.5" stroke="#FFFFFF" stroke-width="3.62250017"></path>
                    <path d="M160.350978,167.66829 C128.716697,168.431446 108.397816,165.094452 106.978394,157.492634 C106.559036,155.245241 107.815657,152.751926 110.562198,150.080154" id="Stroke-8" stroke-opacity="0.8" stroke="#FFFFFF" stroke-width="3.62250017"></path>
                    <path d="M189.997487,166.019815 C183.781975,166.531971 177.818659,166.93241 172.141699,167.220408" id="Stroke-10" stroke-opacity="0.5" stroke="#FFFFFF" stroke-width="3.62250017"></path>
                    <path d="M379.146083,129.364892 C351.735908,138.07082 317.100709,146.652699 279.117913,153.715519 C250.890825,158.964756 224.08534,162.765303 200.394152,165.081612" id="Stroke-12" stroke-opacity="0.8" stroke="#FFFFFF" stroke-width="3.62250017"></path>
                    <path d="M411.848092,85.5476916 C429.394994,86.684446 440.057736,89.9387408 441.072336,95.370787 C442.570251,103.395533 422.707068,114.553426 389.877943,125.824486" id="Stroke-14" stroke-opacity="0.5" stroke="#FFFFFF" stroke-width="3.62250017"></path>
                    <path d="M375.465325,79.9057775 C392.011437,78.8335867 406.792901,78.5354335 419.240641,79.016396" id="Stroke-16" stroke-opacity="0.5" stroke="#FFFFFF" stroke-width="1.81125009"></path>
                    <path d="M142.921453,126.035225 C147.906508,124.263716 153.164837,122.492208 158.671002,120.730129" id="Stroke-18" stroke-opacity="0.8" stroke="#FFFFFF" stroke-width="1.81125009"></path>
                    <path d="M93.3818891,149.921429 C101.817019,142.997892 117.634886,135.279279 138.823008,127.513513" id="Stroke-20" stroke-opacity="0.5" stroke="#FFFFFF" stroke-width="1.81125009"></path>
                    <path d="M92.3179406,167.501803 C89.0045029,165.773095 87.0407151,163.701257 86.590105,161.284112 C86.1373146,158.859714 87.2304074,156.211881 89.7138504,153.39865" id="Stroke-22" stroke-opacity="0.8" stroke="#FFFFFF" stroke-width="1.81125009"></path>
                    <path d="M216.249231,168.80178 C160.579263,175.602719 116.04009,175.848641 96.7954058,169.366167" id="Stroke-24" stroke-opacity="0.5" stroke="#FFFFFF" stroke-width="1.81125009"></path>
                    <path d="M244.820454,164.874936 C238.629653,165.817274 232.536241,166.687069 226.554756,167.485046" id="Stroke-26" stroke-opacity="0.8" stroke="#FFFFFF" stroke-width="1.81125009"></path>
                    <path d="M438.462577,112.96683 C407.596513,128.578885 348.750471,146.14018 280.086943,158.90781 C270.247654,160.738079 260.56099,162.402223 251.083643,163.903145" id="Stroke-28" stroke-opacity="0.5" stroke="#FFFFFF" stroke-width="1.81125009"></path>
                    <path d="M424.618745,79.2816145 C446.649217,80.6185884 460.177694,84.7027792 461.46048,91.579889 C462.44092,96.8276751 456.180347,103.122262 444.23918,109.882577" id="Stroke-30" stroke-opacity="0.8" stroke="#FFFFFF" stroke-width="1.81125009"></path>
                    <path d="M430.034933,64.9075844 C444.405033,64.229304 457.51488,64.0399659 469.10646,64.344648" id="Stroke-32" stroke-opacity="0.5" stroke="#FFFFFF" stroke-width="3.62250017"></path>
                    <path d="M406.333279,66.3831887 C411.383019,65.9979835 416.315745,65.6642841 421.122737,65.3806396" id="Stroke-34" stroke-opacity="0.8" stroke="#FFFFFF" stroke-width="3.62250017"></path>
                    <path d="M384.983809,68.2442884 C389.590934,67.7945197 394.119565,67.3824734 398.564615,67.0066988" id="Stroke-36" stroke-opacity="0.5" stroke="#FFFFFF" stroke-width="3.62250017"></path>
                    <path d="M367.215091,70.1216379 C369.909303,69.8162303 372.581711,69.5224298 375.230136,69.2402361" id="Stroke-38" stroke-opacity="0.8" stroke="#FFFFFF" stroke-width="3.62250017"></path>
                    <path d="M118.327663,121.218636 C132.544411,116.754318 148.010512,112.316116 164.495573,107.98818" id="Stroke-40" stroke-opacity="0.5" stroke="#FFFFFF" stroke-width="3.62250017"></path>
                    <path d="M95.0931172,128.929197 C100.046194,127.187431 105.21004,125.441312 110.57012,123.698096" id="Stroke-42" stroke-opacity="0.8" stroke="#FFFFFF" stroke-width="3.62250017"></path>
                    <path d="M47.814817,148.731936 C58.1359682,143.295537 71.3424775,137.613216 86.9386737,131.864156" id="Stroke-44" stroke-opacity="0.5" stroke="#FFFFFF" stroke-width="3.62250017"></path>
                    <path d="M22.5333385,170.938399 C23.2092536,165.583975 29.523609,159.430847 40.514861,152.826501" id="Stroke-46" stroke-opacity="0.8" stroke="#FFFFFF" stroke-width="3.62250017"></path>
                    <path d="M105.902018,188.420404 C63.9109724,189.640584 34.6060546,186.202754 25.4841077,177.945144" id="Stroke-48" stroke-opacity="0.5" stroke="#FFFFFF" stroke-width="3.62250017"></path>
                    <path d="M145.969176,186.147041 C134.865271,187.042951 124.303552,187.701645 114.373414,188.118769" id="Stroke-50" stroke-opacity="0.8" stroke="#FFFFFF" stroke-width="3.62250017"></path>
                    <path d="M166.40943,184.287392 C162.118459,184.71975 157.8929,185.119464 153.737839,185.48871" id="Stroke-52" stroke-opacity="0.5" stroke="#FFFFFF" stroke-width="3.62250017"></path>
                    <path d="M225.444874,176.897038 C207.94376,179.481758 191.072773,181.646451 175.044864,183.383864" id="Stroke-54" stroke-opacity="0.8" stroke="#FFFFFF" stroke-width="3.62250017"></path>
                    <path d="M321.210127,159.625481 C308.36774,162.358915 295.169225,164.992238 281.69017,167.498611 C265.410064,170.52512 249.444658,173.233163 233.935676,175.616938" id="Stroke-56" stroke-opacity="0.5" stroke="#FFFFFF" stroke-width="3.62250017"></path>
                    <path d="M346.527146,154.004822 C340.808759,155.328013 335.00243,156.635244 329.115427,157.920712" id="Stroke-58" stroke-opacity="0.8" stroke="#FFFFFF" stroke-width="3.62250017"></path>
                    <path d="M396.348486,141.438645 C383.069298,145.089027 369.041515,148.678472 354.395961,152.159102" id="Stroke-60" stroke-opacity="0.5" stroke="#FFFFFF" stroke-width="3.62250017"></path>
                    <path d="M465.099737,119.511329 C447.996178,125.97349 427.805212,132.54084 405.238369,138.954398" id="Stroke-62" stroke-opacity="0.8" stroke="#FFFFFF" stroke-width="3.62250017"></path>
                    <path d="M481.089781,113.116995 C478.277102,114.312509 475.34741,115.515278 472.304338,116.722399" id="Stroke-64" stroke-opacity="0.5" stroke="#FFFFFF" stroke-width="3.62250017"></path>
                    <path d="M519.961733,90.9381705 C514.026035,96.6676445 503.552985,102.942645 489.339871,109.474448" id="Stroke-66" stroke-opacity="0.8" stroke="#FFFFFF" stroke-width="3.62250017"></path>
                    <path d="M520.656617,73.4491289 C523.387895,75.2576347 525.020994,77.3338254 525.458521,79.6798775 C525.749238,81.2344815 525.50649,82.8674324 524.757895,84.5692994" id="Stroke-68" stroke-opacity="0.5" stroke="#FFFFFF" stroke-width="3.62250017"></path>
                    <path d="M478.140756,64.698587 C492.855356,65.4798789 504.601016,67.1890003 512.724353,69.839009" id="Stroke-70" stroke-opacity="0.8" stroke="#FFFFFF" stroke-width="3.62250017"></path>
                    <path d="M458.038314,57.5688812 C462.02912,57.4883581 465.913815,57.4470084 469.685131,57.4455575" id="Stroke-72" stroke-opacity="0.5" stroke="#FFFFFF" stroke-width="1.81125009"></path>
                    <path d="M403.515585,60.6066341 C420.940386,59.1158682 437.246656,58.1503162 452.168391,57.7150561" id="Stroke-74" stroke-opacity="0.8" stroke="#FFFFFF" stroke-width="1.81125009"></path>
                    <path d="M362.642125,64.8324295 C373.501101,63.5288254 384.06064,62.3971491 394.266958,61.4366751" id="Stroke-76" stroke-opacity="0.5" stroke="#FFFFFF" stroke-width="1.81125009"></path>
                    <path d="M149.99276,105.820875 C158.320325,103.572031 166.897179,101.351479 175.697885,99.1671983" id="Stroke-78" stroke-opacity="0.8" stroke="#FFFFFF" stroke-width="1.81125009"></path>
                    <path d="M64.2755305,133.298048 C86.1039549,124.77638 112.7103,116.114704 142.797244,107.787452" id="Stroke-80" stroke-opacity="0.5" stroke="#FFFFFF" stroke-width="1.81125009"></path>
                    <path d="M15.936843,156.909386 C25.8669809,150.173735 40.2625194,142.99412 58.2934637,135.678123" id="Stroke-82" stroke-opacity="0.8" stroke="#FFFFFF" stroke-width="1.81125009"></path>
                    <path d="M3.80067798,167.495492 C5.50718196,165.30831 7.8336382,163.044957 10.7422536,160.717766" id="Stroke-84" stroke-opacity="0.5" stroke="#FFFFFF" stroke-width="1.81125009"></path>
                    <path d="M39.1913029,193.547333 C15.9892446,190.920538 2.03995544,185.51751 0.504974005,177.291093 C0.273127851,176.052053 0.327637135,174.770937 0.6576,173.452825" id="Stroke-86" stroke-opacity="0.8" stroke="#FFFFFF" stroke-width="1.81125009"></path>
                    <path d="M65.2684716,195.248983 C58.7477077,195.071977 52.6426679,194.754962 46.9875114,194.297939" id="Stroke-88" stroke-opacity="0.5" stroke="#FFFFFF" stroke-width="1.81125009"></path>
                    <path d="M128.812924,193.481391 C107.442377,194.974334 88.0334382,195.606186 71.1435549,195.369695" id="Stroke-90" stroke-opacity="0.8" stroke="#FFFFFF" stroke-width="1.81125009"></path>
                    <path d="M161.712983,190.653361 C153.620171,191.470199 145.733768,192.18185 138.077031,192.789763" id="Stroke-92" stroke-opacity="0.5" stroke="#FFFFFF" stroke-width="1.81125009"></path>
                    <path d="M236.661141,180.928054 C213.306456,184.57771 190.855172,187.544008 169.711385,189.818968" id="Stroke-94" stroke-opacity="0.8" stroke="#FFFFFF" stroke-width="1.81125009"></path>
                    <path d="M259.409536,177.203098 C254.830756,177.986566 250.280321,178.74537 245.762592,179.478783" id="Stroke-96" stroke-opacity="0.5" stroke="#FFFFFF" stroke-width="1.81125009"></path>
                    <path d="M341.931432,160.890057 C322.93749,165.168664 303.127363,169.247051 282.724175,173.040343 C277.572684,173.997915 272.450265,174.925745 267.359824,175.822381" id="Stroke-98" stroke-opacity="0.8" stroke="#FFFFFF" stroke-width="1.81125009"></path>
                    <path d="M417.465092,141.622833 C396.300954,147.738963 373.202827,153.710732 348.666381,159.356781" id="Stroke-100" stroke-opacity="0.5" stroke="#FFFFFF" stroke-width="1.81125009"></path>
                    <path d="M435.6874,136.175045 C432.79114,137.07168 429.850546,137.966865 426.867071,138.859149" id="Stroke-102" stroke-opacity="0.8" stroke="#FFFFFF" stroke-width="1.81125009"></path>
                    <path d="M508.565876,108.981153 C492.471829,116.586598 471.934184,124.476413 447.941378,132.286431" id="Stroke-104" stroke-opacity="0.5" stroke="#FFFFFF" stroke-width="1.81125009"></path>
                    <path d="M542.409237,87.5057818 C537.189428,93.0546228 528.225195,99.0503309 516.083433,105.28253" id="Stroke-106" stroke-opacity="0.8" stroke="#FFFFFF" stroke-width="1.81125009"></path>
                    <path d="M528.451154,62.7616795 C539.822517,65.7562691 546.51117,70.0218182 547.546119,75.5728355 C547.886984,77.3973009 547.607897,79.3117199 546.740836,81.3052113" id="Stroke-108" stroke-opacity="0.5" stroke="#FFFFFF" stroke-width="1.81125009"></path>
                    <path d="M486.024034,57.7155639 C499.078645,58.1740379 510.372241,59.2157604 519.596666,60.8472604" id="Stroke-110" stroke-opacity="0.8" stroke="#FFFFFF" stroke-width="1.81125009"></path>
                    <path d="M123.807736,0.666310694 L139.362505,0.666310694" id="Stroke-112" stroke="#3C257B" stroke-width="1.81125009"></path>
                    <path d="M134.177945,7.6309078 L175.080258,7.6309078" id="Stroke-114" stroke="#3C257B" stroke-width="1.81125009"></path>
                    <path d="M394.733776,19.3943928 L403.375314,19.3943928" id="Stroke-116" stroke="#3C257B" stroke-width="1.81125009"></path>
                    <path d="M410.432159,19.3943928 L436.517395,19.3943928" id="Stroke-118" stroke="#3C257B" stroke-width="1.81125009"></path>
                    <path d="M394.733776,26.3589899 L420.818285,26.3589899" id="Stroke-120" stroke="#3C257B" stroke-width="1.81125009"></path>
                    <path d="M335.89144,243.238079 L372.265848,243.238079" id="Stroke-122" stroke="#3C257B" stroke-width="1.81125009"></path>
                    <path d="M340.580764,250.636921 L354.82295,250.636921" id="Stroke-124" stroke="#3C257B" stroke-width="1.81125009"></path>
                    <path d="M327.169954,250.636921 L334.819424,250.636921" id="Stroke-126" stroke="#3C257B" stroke-width="1.81125009"></path>
                </g>
            </g>
        </g>
    </g>
</svg>