<?xml version="1.0" encoding="utf-8"?>
<!-- Generator: Adobe Illustrator 21.0.2, SVG Export Plug-In . SVG Version: 6.00 Build 0)  -->
<svg version="1.1" id="Layer_1" xmlns="http://www.w3.org/2000/svg" xmlns:xlink="http://www.w3.org/1999/xlink" x="0px" y="0px"
	 viewBox="0 0 32 32" style="enable-background:new 0 0 32 32;" xml:space="preserve">
<path class="st4" d="M16,0C7.178,0,0,7.178,0,16s7.178,16,16,16s16-7.178,16-16S24.822,0,16,0z M30,16
	c0,3.501-1.3,6.697-3.432,9.154L6.846,5.432C9.303,3.3,12.499,2,16,2C23.72,2,30,8.28,30,16z M2,16c0-3.501,1.3-6.697,3.432-9.154
	l19.722,19.722C22.697,28.7,19.501,30,16,30C8.28,30,2,23.72,2,16z"/>
</svg>
