<?xml version="1.0" encoding="utf-8"?>
<!-- Generator: Adobe Illustrator 23.0.1, SVG Export Plug-In . SVG Version: 6.00 Build 0)  -->
<svg version="1.1" xmlns="http://www.w3.org/2000/svg" xmlns:xlink="http://www.w3.org/1999/xlink" x="0px" y="0px" width="540px"
	 height="480px" viewBox="0 0 540 480" style="enable-background:new 0 0 540 480;" xml:space="preserve">
<style type="text/css">
	.st0{display:none;}
	.st1{display:inline;opacity:0.1;fill:#FF00FF;}
	.st2{fill:url(#SVGID_3_);}
	.st3{fill:url(#SVGID_4_);}
	.st4{fill:url(#SVGID_5_);}
	.st5{fill:url(#SVGID_10_);}
	.st6{fill:url(#SVGID_11_);}
	.st7{fill:url(#SVGID_12_);}
	.st8{fill:url(#SVGID_13_);}
	.st9{fill:url(#SVGID_16_);}
	.st10{fill:url(#SVGID_19_);}
	.st11{fill:url(#SVGID_20_);}
	.st12{fill:#DA3B21;}
	.st13{fill:#FB6D26;}
	.st14{fill:#FBA021;}
	.st15{fill:#14125B;}
	.st16{fill:#FFFFFF;}
	.st17{fill:none;stroke:#14125B;stroke-width:5.4;stroke-linecap:round;stroke-miterlimit:10;}
	.st18{fill:none;stroke:url(#SVGID_21_);stroke-width:5.4;stroke-linecap:round;stroke-miterlimit:10;}
	.st19{fill:url(#SVGID_22_);}
	.st20{fill:none;stroke:url(#SVGID_23_);stroke-width:5.4;stroke-linecap:round;stroke-miterlimit:10;}
	.st21{clip-path:url(#SVGID_25_);fill:url(#SVGID_26_);}
	.st22{clip-path:url(#SVGID_28_);fill:url(#SVGID_29_);}
	.st23{clip-path:url(#SVGID_31_);fill:url(#SVGID_32_);}
	.st24{clip-path:url(#SVGID_34_);fill:url(#SVGID_35_);}
	.st25{clip-path:url(#SVGID_37_);fill:url(#SVGID_38_);}
	.st26{clip-path:url(#SVGID_40_);fill:url(#SVGID_41_);}
	.st27{fill:#844B6E;}
	.st28{opacity:0.5;}
	.st29{fill:url(#SVGID_42_);}
	.st30{fill:url(#SVGID_43_);}
	.st31{fill:none;stroke:#FFFFFF;stroke-width:2.6505;stroke-linecap:round;stroke-linejoin:round;stroke-miterlimit:10;}
	.st32{fill:#6753A2;}
	.st33{fill:url(#SVGID_44_);}
	.st34{fill:url(#SVGID_47_);}
	.st35{fill:url(#SVGID_48_);}
	.st36{fill:url(#SVGID_51_);}
	.st37{fill:url(#SVGID_52_);}
	.st38{fill:url(#SVGID_55_);}
	.st39{fill:url(#SVGID_56_);}
	.st40{fill:url(#SVGID_59_);}
	.st41{fill:url(#SVGID_60_);}
	.st42{fill:url(#SVGID_63_);}
	.st43{fill:url(#SVGID_64_);}
</style>
<g id="spacing" class="st0">
	<rect x="0" y="40.397" class="st1" width="40" height="439.507"/>
	<rect x="498.935" y="40.397" class="st1" width="40" height="439.507"/>
	
		<rect x="208.258" y="275.174" transform="matrix(-1.836970e-16 1 -1 -1.836970e-16 613.4315 156.9155)" class="st1" width="40" height="220"/>
	
		<rect x="208.258" y="-90.001" transform="matrix(-1.836970e-16 1 -1 -1.836970e-16 248.2574 -208.2586)" class="st1" width="40" height="220"/>
</g>
<g id="Layer_1">
	<g>
		<g>
			<g id="g48_1_" transform="translate(155.197863, 1.160267)">
				<path id="path50_1_" class="st12" d="M114.825,246.003L114.825,246.003l40.537-124.74H74.288L114.825,246.003L114.825,246.003z"
					/>
			</g>
			<g id="g56_1_" transform="translate(28.531199, 1.160800)">
				<path id="path58_1_" class="st13" d="M241.462,246.003l-40.537-124.74h-56.761L241.462,246.003L241.462,246.003z"/>
			</g>
			<g id="g64_1_" transform="translate(0.088533, 0.255867)">
				<path id="path66_1_" class="st14" d="M172.587,122.21L172.587,122.21l-12.335,37.9c-1.117,3.441,0.089,7.24,3.039,9.386
					l106.595,77.454L172.587,122.21L172.587,122.21z"/>
			</g>
			<g id="g72_1_" transform="translate(29.421866, 280.255593)">
				<path id="path74_1_" class="st12" d="M143.269-157.79h56.806l-24.447-75.13c-1.251-3.844-6.704-3.844-8,0L143.269-157.79
					L143.269-157.79z"/>
			</g>
			<g id="g76_1_" transform="translate(247.197860, 1.160800)">
				<path id="path78_1_" class="st13" d="M22.825,246.003l40.537-124.74h56.806L22.825,246.003L22.825,246.003z"/>
			</g>
			<g id="g80_1_" transform="translate(246.307061, 0.255867)">
				<path id="path82_1_" class="st14" d="M121.018,122.21L121.018,122.21l12.335,37.9c1.117,3.441-0.089,7.24-3.039,9.386
					L23.72,246.905L121.018,122.21L121.018,122.21z"/>
			</g>
			<g id="g84_1_" transform="translate(336.973725, 280.255593)">
				<path id="path86_1_" class="st12" d="M30.381-157.79h-56.806l24.403-75.13c1.251-3.844,6.704-3.844,8,0L30.381-157.79
					L30.381-157.79z"/>
			</g>
			<path class="st15" d="M383.99,158.957l-12.136-37.288c-0.055-0.325-0.154-0.643-0.281-0.954L347.266,45.88
				c-1.226-3.638-4.492-5.981-8.327-5.981c-0.017,0-0.034,0-0.049,0c-3.836,0.02-7.081,2.385-8.267,6.029l-23.367,71.942h-74.466
				l-23.41-71.945c-1.186-3.64-4.43-6.005-8.266-6.025c-0.017,0-0.033,0-0.049,0c-3.835,0-7.101,2.343-8.344,6.031l-24.294,74.93
				c-0.025,0.066-0.057,0.128-0.079,0.195L156.01,158.96c-1.738,5.352,0.148,11.169,4.694,14.475l106.594,77.454
				c0.804,0.584,1.742,0.869,2.674,0.869c0.688,0,1.365-0.173,1.992-0.479c0.025-0.012,0.049-0.024,0.074-0.036
				c0.019-0.009,0.038-0.017,0.056-0.026c0.03-0.016,0.058-0.037,0.088-0.053c0.056-0.03,0.113-0.06,0.167-0.093
				c0.095-0.058,0.19-0.116,0.281-0.182c0.024-0.016,0.05-0.028,0.073-0.045l106.596-77.411
				C383.843,170.129,385.728,164.313,383.99,158.957z M226.162,127.018l31.503,96.937l-75.612-96.937H226.162z M282.346,223.971
				l31.508-96.953h44.145l-59.519,76.278L282.346,223.971z M338.952,49.757l22.123,68.114h-44.247L338.952,49.757z M304.293,126.975
				l-34.271,105.458l-34.27-105.458H304.293z M201.05,49.756l22.164,68.114h-44.248L201.05,49.756z M166.057,166.07
				c-1.347-0.98-1.904-2.707-1.388-4.296l9.685-29.756l72.161,92.514L166.057,166.07z M373.946,166.068l-80.464,58.433l6.015-7.709
				l66.151-84.77l9.682,29.748C375.847,163.364,375.29,165.091,373.946,166.068z"/>
		</g>
		<g>
			<path class="st16" d="M280.498,294.942c-7.819,0-14.972,2.782-19.08,9.806c-4.372-7.024-11.129-9.806-19.212-9.806
				c-14.043,0-25.171,10.07-25.171,26.63v36.039c0,4.108,3.178,7.418,7.285,7.418s7.288-3.31,7.288-7.418V321.44
				c0-8.744,5.035-12.983,11.261-12.983c6.229,0,11.261,4.24,11.261,12.983v36.171c0,4.108,3.18,7.418,7.288,7.418
				c3.976,0,7.288-3.31,7.288-7.418V321.44c0-8.744,4.9-12.983,11.129-12.983c6.358,0,11.264,4.24,11.264,12.983v36.171
				c0,4.108,3.178,7.418,7.285,7.418c4.108,0,7.285-3.31,7.285-7.418v-36.039C305.669,305.012,294.543,294.942,280.498,294.942z"/>
			<path class="st16" d="M385.66,294.942c-7.819,0-14.975,2.782-19.08,9.806c-4.374-7.024-11.129-9.806-19.212-9.806
				c-14.045,0-25.171,10.07-25.171,26.63v36.039c0,4.108,3.18,7.418,7.285,7.418c4.108,0,7.285-3.31,7.285-7.418V321.44
				c0-8.744,5.035-12.983,11.264-12.983s11.264,4.24,11.264,12.983v36.171c0,4.108,3.178,7.418,7.285,7.418
				c3.976,0,7.285-3.31,7.285-7.418V321.44c0-8.744,4.903-12.983,11.132-12.983c6.358,0,11.261,4.24,11.261,12.983v36.171
				c0,4.108,3.18,7.418,7.288,7.418c4.108,0,7.285-3.31,7.285-7.418v-36.039C410.832,305.012,399.703,294.942,385.66,294.942z"/>
			<path class="st16" d="M434.618,270.167c-4.771,0-8.612,3.841-8.612,8.612c0,4.636,3.841,8.612,8.612,8.612
				s8.614-3.976,8.614-8.612C443.232,274.008,439.389,270.167,434.618,270.167z"/>
			<path class="st16" d="M434.618,295.074c-4.108,0-7.288,3.18-7.288,7.288v55.248c0,4.108,3.18,7.418,7.288,7.418
				s7.288-3.31,7.288-7.418v-55.248C441.906,298.255,438.726,295.074,434.618,295.074z"/>
			<path class="st16" d="M492.645,351.385c-9.01,0-15.501-5.962-15.501-17.622V309.78h15.501c3.711,0,6.757-3.046,6.757-6.754
				c0-3.844-3.046-6.757-6.757-6.757h-15.501v-9.938c0-4.108-3.18-7.288-7.288-7.288c-4.108,0-7.288,3.18-7.288,7.288v9.938H457.8
				c-3.711,0-6.757,2.914-6.757,6.757c0,3.709,3.046,6.754,6.757,6.754h4.768v23.983c0,19.209,12.986,31.266,30.077,31.266
				c3.711,0,6.757-3.046,6.757-6.889C499.402,354.43,496.357,351.385,492.645,351.385z"/>
			<path class="st16" d="M184.4,298.394c-12.272-5.865-26.29-4.625-38.446,3.401c-8.544,5.639-15.156,14.242-20.991,21.832
				l-0.499,0.65c-12.611,16.398-22.907,27.848-40.176,25.635c-7.566-0.96-15.549-4.816-19.867-9.603
				c-7.835-8.676-10.711-19.816-7.895-30.565c3.318-12.654,13.013-22.428,24.123-24.32c12.778-2.175,23.207,1.162,31.02,9.919
				c2.738,3.073,7.447,3.34,10.52,0.601c3.073-2.738,3.342-7.45,0.601-10.52c-11.134-12.485-26.993-17.7-44.642-14.695
				c-16.781,2.86-31.263,17.021-36.036,35.236c-4.056,15.466,0.148,32.039,11.248,44.33c6.736,7.466,17.87,12.986,29.053,14.404
				c27.088,3.439,42.578-16.657,53.866-31.333l0.501-0.655c5.121-6.663,10.924-14.215,17.385-18.476
				c5.517-3.644,14.129-7.016,23.813-2.391c4.865,2.323,8.598,5.908,10.242,9.827c3.032,7.237,2.078,14.503-2.757,21.015
				c-4.517,6.086-13.194,9.229-20.624,7.444c-4.93-1.172-9.523-4.137-11.703-7.55c-2.218-3.466-6.822-4.48-10.293-2.267
				c-3.466,2.218-4.482,6.825-2.267,10.293c4.28,6.695,12.059,11.938,20.808,14.021c2.52,0.601,5.1,0.892,7.679,0.892
				c10.921,0,21.864-5.188,28.368-13.951c8.029-10.814,9.638-23.479,4.536-35.659C198.882,308.555,192.645,302.335,184.4,298.394z"
				/>
		</g>
		<g>
			<path class="st16" d="M197.673,408.347h8.223c2.023,0,3.617,0.557,4.629,1.568c0.811,0.81,1.215,1.796,1.215,3.011v0.05
				c0,1.999-1.062,3.112-2.327,3.82c2.049,0.784,3.313,1.974,3.313,4.352v0.051c0,3.238-2.631,4.857-6.628,4.857h-8.425V408.347z
				 M207.868,413.583c0-1.163-0.91-1.821-2.555-1.821h-3.846v3.744h3.593c1.72,0,2.808-0.557,2.808-1.872V413.583z M205.971,418.744
				h-4.503v3.896h4.63c1.721,0,2.758-0.607,2.758-1.923v-0.051C208.855,419.478,207.97,418.744,205.971,418.744z"/>
			<path class="st16" d="M216.154,408.347h8.096c2.252,0,3.997,0.632,5.161,1.796c0.986,0.986,1.518,2.378,1.518,4.048v0.051
				c0,2.858-1.543,4.655-3.795,5.489l4.326,6.325h-4.554l-3.795-5.667h-3.061v5.667h-3.896V408.347z M223.997,416.948
				c1.897,0,2.985-1.012,2.985-2.505v-0.051c0-1.67-1.164-2.529-3.062-2.529h-3.87v5.085H223.997z"/>
			<path class="st16" d="M233.454,417.252v-0.051c0-5.035,3.972-9.158,9.437-9.158s9.386,4.073,9.386,9.107v0.051
				c0,5.034-3.972,9.158-9.437,9.158C237.376,426.359,233.454,422.286,233.454,417.252z M248.203,417.252v-0.051
				c0-3.036-2.226-5.566-5.363-5.566c-3.137,0-5.312,2.479-5.312,5.516v0.051c0,3.036,2.227,5.565,5.363,5.565
				S248.203,420.287,248.203,417.252z"/>
			<path class="st16" d="M254.84,417.252v-0.051c0-5.035,3.972-9.158,9.437-9.158s9.386,4.073,9.386,9.107v0.051
				c0,5.034-3.972,9.158-9.437,9.158S254.84,422.286,254.84,417.252z M269.589,417.252v-0.051c0-3.036-2.226-5.566-5.363-5.566
				c-3.137,0-5.312,2.479-5.312,5.516v0.051c0,3.036,2.227,5.565,5.363,5.565S269.589,420.287,269.589,417.252z"/>
			<path class="st16" d="M277.124,408.347h3.896v7.741l7.185-7.741h4.706l-7.211,7.514l7.539,10.195h-4.68l-5.49-7.539l-2.049,2.125
				v5.414h-3.896V408.347z"/>
			<path class="st16" d="M295.641,408.347h3.896v14.167h8.829v3.542h-12.726V408.347z"/>
			<path class="st16" d="M313.462,419.073l-6.806-10.727h4.554l4.225,7.108l4.301-7.108h4.428l-6.806,10.65v7.059h-3.896V419.073z"
				/>
			<path class="st16" d="M326.592,408.347h3.593l8.298,10.903v-10.903h3.846v17.709h-3.314l-8.576-11.258v11.258h-3.846V408.347z"/>
		</g>
		<g>
			<path class="st16" d="M395.909,410.382l-3.339,1.038l-0.481-1.619l4.326-1.493h1.468v17.836h-1.974V410.382z"/>
			<path class="st16" d="M413.288,417.238v-0.354c-1.113,1.721-2.732,2.809-5.01,2.809c-3.643,0-6.173-2.303-6.173-5.49v-0.051
				c0-3.364,2.605-6.021,6.375-6.021c2.024,0,3.517,0.683,4.655,1.821c1.341,1.341,2.201,3.314,2.201,6.856v0.05
				c0,5.617-2.985,9.589-7.362,9.589c-2.302,0-3.972-0.937-5.464-2.176l1.163-1.543c1.442,1.265,2.783,1.897,4.352,1.897
				C411.44,424.626,413.288,421.059,413.288,417.238z M412.908,413.975v-0.051c0-2.251-1.847-4.022-4.503-4.022
				s-4.25,1.948-4.25,4.149v0.051c0,2.251,1.771,3.87,4.351,3.87C411.213,417.972,412.908,415.999,412.908,413.975z"/>
		</g>
		<g>
			<path class="st16" d="M117.542,424.601l6.427-5.667c2.707-2.429,3.693-3.795,3.693-5.566c0-2.074-1.645-3.39-3.567-3.39
				c-2.023,0-3.339,1.062-4.756,3.036l-1.468-1.062c1.594-2.379,3.264-3.77,6.376-3.77c3.188,0,5.489,2.125,5.489,5.009v0.051
				c0,2.58-1.366,4.174-4.478,6.881l-4.731,4.2h9.387v1.821h-12.372V424.601z"/>
			<path class="st16" d="M132.788,417.34v-0.051c0-4.959,2.96-9.158,7.514-9.158s7.438,4.148,7.438,9.107v0.051
				c0,4.958-2.935,9.158-7.488,9.158C135.673,426.447,132.788,422.298,132.788,417.34z M145.665,417.34v-0.051
				c0-3.871-2.125-7.337-5.413-7.337c-3.314,0-5.39,3.39-5.39,7.286v0.051c0,3.87,2.126,7.337,5.439,7.337
				C143.616,424.626,145.665,421.21,145.665,417.34z"/>
		</g>
		<g>
			<rect x="170.753" y="394.1" class="st16" width="2.3" height="46"/>
		</g>
		<g>
			<rect x="366.062" y="394.1" class="st16" width="2.3" height="46"/>
		</g>
	</g>
</g>
</svg>
